Kemampuan Akhir yang Diharapkan,
Menunjukkan ruang lingkup mata kuliah.,
"Mendiskusikan, mencontohkan dan menceritakan definisi jaringan komputer, pengguna jaringan komputer, business application , home application dan mobile users",
(IEEE Computer Engineering CE NWK 1),
"Membedakan, membandingkan dan memberi contoh struktur jaringan termasuk didalamnya mengenai topologi jaringan seperti Mesh, Star, Tree, Bus, Ring dan 3-D Torus ",
Menggambarkan disain jaringan sesuai dengan kebutuhan pengguna berdasarkan hasil survei teknis,
"Mengenali,  mencatat dan menggambarkan  peralatan jaringan yang dibutuhkan sesuai dengan kebutuhan pengguna",
"Membedakan tipe jaringan seperti LAN, MAN dan WAN",
Menerangkan fungsi protokol dalam jaringan komputer,
"(IEEE Computer Engineering CE NWK 3 & 4, SKKNI No. 321 ",
"KU J.611000.001.01 KUK No. 1.1, 1.2, 1.3, 2.2, 2.3)",
KU J.611000.002.01 KUK No. 1.1 dan 2.2,
J.611000.003.01 KUK No. 2.2,
"Menerangkan dan membedakan model referensi OSI Layer  berdasarkan fungsi, peralatan dan protokol pada setiap layernya.",
"Menerangkan dan membedakan model referensi TCP/IP  berdasarkan fungsi, peralatan dan protokol pada setiap layernya.",
Membedakan dan memberi contoh servis connection oriented dan connectionless oriented.,
"(IEEE Computer Engineering CE NWK 3, SKKNI no. 321 ",
KU J.611000.002.01 KUK No. 1.1 dan 2.2,
KU J.611000.005.02 KUK No. 1.2 dan 1.3),
Menerangkan pengertian dan membedakan penggunaan physical layer berdasarkan kabel dan nirkabel.,
Menggolongkan media transmisi berdasarkan kabel dan nirkabel.,
Mengenali karakteristik dari media transmisi kabel dan nirkabel.,
Menerangkan pengertian data rate dan bandwidth serta mencontohkan penggunaan data rate dan bandwidth.,
"(IEEE Computer Engineering CE NWK 2, SKKNI no. 321 KU J.611000.003.02 KUK No. 2.1, 2.3, 2.5)  ",
Menerangkan penggunaan kabel UTP,
Membedakan kabel UTP dari CAT 1 hingga CAT 7 berdasarkan kegunaannya.,
"Menerangkan penggunaan susunan warna pada kabel UTP untuk kabel straight, cross dan rollover.",
"Membedakan dan menentukan penggunaan kabel straight, cross dan rollover.",
"Mencontohkan pembuatan kabel straight, cross dan rollover dengan melakukan crimping.",
( SKKNI no. 321 ,
"KU J.611000.008.02 KUK No. 1.1, 1.2, 1.3, 1.4, 2.1, 2.2, 2.3, 2.4, 2.5, 3.1, 3.2 )",
Menerangkan pengertian Data Link dan struktur frame,
Menerangkan fungsi struktur frame,
Menerangkan fungsi LLC dan MAC sublayer,
Melakukan pendeteksian dan koreksi kesalahan dengan berbagai contoh ,
(IEEE Computer Engineering CE NWK 4),
Menerangkan pengertian network layer. ,
"Mempelajari dan memberi contoh mengenai pengalamatan fisik, logika dan port.",
Menerangkan mengenai internet protokol dan membandingkan perbedaan IPv4 dan IPv6.,
"Melakukan konversi IP dari desimal ke biner, biner ke desimal, hexadesimal ke biner dan biner ke hexadesimal.",
Melakukan konfigurasi IP pada  peralatan jaringan.,
"(IEEE Computer Engineering CE NWK 6, SKKNI no. 321 KU J.611000.004.01 KUK No. 2.2, 2.3, 3.1, 3.2)",
Mencontohkan konsep IP subnetting dengan model lain.,
"Membedakan IP subnetting pada Class A, Class B dan Class C",
"Memberi contoh penggunaan IP subnetting pada Class A, Class B dan Class C",
"(IEEE Computer Engineering CE NWK 6, SKKNI no. 321 KU J.611000.004.01 KUK No. 2.2, 2.3, 3.1, 3.2)",
"Menerangkan definisi, tipe dan fungsi switch.",
Melakukan konfigurasi pada switch.,
Menerangkan definisi dan fungsi VLAN.,
Melakukan konfigurasi VLAN menggunakan switch.,
Menerangkan definisi dan fungsi DHCP.,
Melakukan konfigurasi DHCP.,
"(SKKNI no. 321 KU J.611000.012.02 KUK No. 1.2, 2.1, 2.2, 3.1, 3.2, 3.3, 4.1, 4.2)",
"Menerangkan definisi, jenis dan fungsi router.",
Menerapkan routing yang sesuai dengan kebutuhan.,
Menggunakan static dan dynamic routing protokol pada konfigurasi router.,
"(SKKNI no. 321 KU J.611000.013.02 KUK No. 2.1, 2.2, 2.3, 2.4, 3.1, 3.2)",
UJIAN TENGAH SEMESTER,
Menerangkan konsep wireless network,
Menerangkan dan membedakan teknologi cellular network,
Menggambarkan dan menerangkan struktur cellular network,
(IEEE Computer Engineering CE NWK 2),
Menerangkan pengertian dan teknologi Wireless LAN.,
Menerangkan dan memberi contoh tipe keamanan wireless LAN,
Melakukan konfigurasi access point dan wireless router.,
"(SKKNI no. 321 KU J.611000.010.02 KUK No. 2.1, 2.2, 2.3, 3.1, 3.2)",
Menerangkan definisi dan fungsi server.,
Menerangkan pengenalan NOS.,
Menerangkan dan memberi contoh konsep client server.,
Menggunakan windows server.,
"(SKKNI no. 321 KU J.611000.004.01 KUK No. 1.1, 1.2)",
Mengimplementasikan active directory.,
Mengimplementasikan DHCP server,
Mengimplementasikan DNS server,
UJIAN AKHIR SEMESTER,
